{
  "type": "object",
  "required": [
    "name",
    "packager",
    "version",
    "location",
    "vulnerabilities"
  ],
  "properties": {
    "name": {
      "type": "string"
    },
    "packager": {
      "type": "string"
    },
    "version": {
      "type": "string"
    },
    "location": {
      "blob_path": {
        "type": "string"
      },
      "path": {
        "type": "string"
      }
    },
    "vulnerabilities": {
      "type": "array",
      "properties": {
        "name": {
          "type": "string"
        },
        "severity": {
          "type": "string"
        }
      }
    }
  },
  "additionalProperties": false
}
